<svg xmlns="http://www.w3.org/2000/svg" width="16" height="16">
  <path fill="#EEE" d="M8.002 1c-3.868 0-7.002 3.133-7.002 7 0 3.865 3.134 7 7.002 7 3.865 0 7-3.135 7-7 0-3.867-3.135-7-7-7zm2.348 10.482l-.977.977c-.195.193-.514.193-.707 0l-4.108-4.105c-.194-.195-.194-.514 0-.708l4.108-4.105c.193-.194.512-.194.707 0l.979.977c.191.194.191.513 0 .707l-2.422 2.421c-.195.194-.195.515 0 .708l2.419 2.421c.196.19.196.512.001.707z"/>
</svg>
