<svg xmlns="http://www.w3.org/2000/svg" width="16" height="16">
  <g>
    <path fill="#EEE" d="M14.752 6h-13.502c-.69 0-1.25.56-1.25 1.25v.5c0 .689.56 1.25 1.25 1.25h13.502c.689 0 1.25-.561 1.25-1.25v-.5c0-.69-.561-1.25-1.25-1.25zM14.752 0h-13.502c-.69 0-1.25.56-1.25 1.25v.5c0 .69.56 1.25 1.25 1.25h13.502c.689 0 1.25-.56 1.25-1.25v-.5c0-.69-.561-1.25-1.25-1.25zM14.752 12h-13.502c-.69 0-1.25.561-1.25 1.25v.5c0 .689.56 1.25 1.25 1.25h13.502c.689 0 1.25-.561 1.25-1.25v-.5c0-.689-.561-1.25-1.25-1.25z"/>
  </g>
</svg>
