<svg xmlns="http://www.w3.org/2000/svg" width="16" height="16">
  <path fill="#EEE" d="M4 13.53a.5.5 0 0 1-.5.5h-3a.5.5 0 0 1-.5-.5V9.28c0-.275.225-.5.5-.5h3c.275 0 .5.225.5.5v4.25zm6.002 0a.5.5 0 0 1-.5.5H6.5a.5.5 0 0 1-.5-.5v-13a.5.5 0 0 1 .5-.5h3.002a.5.5 0 0 1 .5.5v13zm6 0a.5.5 0 0 1-.5.5h-3a.5.5 0 0 1-.5-.5v-9.5a.5.5 0 0 1 .5-.5h3a.5.5 0 0 1 .5.5v9.5z"/>
</svg>
